{
   "platform": {
      "uat": {
        "url": "https:/www.zzz.com",
        "method": "post"
      },
      "production": {
        "url": "https:/www.zzz.com",
        "method": "post"
      }
    }
}